%YAML 1.1
%TAG !u! tag:unity3d.com,2011:
--- !u!29 &1
SceneSettings:
  m_ObjectHideFlags: 0
  m_PVSData: 
  m_PVSObjectsArray: []
  m_PVSPortalsArray: []
  m_OcclusionBakeSettings:
    smallestOccluder: 5
    smallestHole: 0.25
    backfaceThreshold: 100
--- !u!104 &2
RenderSettings:
  m_ObjectHideFlags: 0
  serializedVersion: 7
  m_Fog: 0
  m_FogColor: {r: 0.5, g: 0.5, b: 0.5, a: 1}
  m_FogMode: 3
  m_FogDensity: 0.01
  m_LinearFogStart: 0
  m_LinearFogEnd: 300
  m_AmbientSkyColor: {r: 0.2, g: 0.2, b: 0.2, a: 1}
  m_AmbientEquatorColor: {r: 0.2, g: 0.2, b: 0.2, a: 1}
  m_AmbientGroundColor: {r: 0.2, g: 0.2, b: 0.2, a: 1}
  m_AmbientIntensity: 1
  m_AmbientMode: 3
  m_SkyboxMaterial: {fileID: 0}
  m_HaloStrength: 0.5
  m_FlareStrength: 1
  m_FlareFadeSpeed: 3
  m_HaloTexture: {fileID: 0}
  m_SpotCookie: {fileID: 10001, guid: 0000000000000000e000000000000000, type: 0}
  m_DefaultReflectionMode: 0
  m_DefaultReflectionResolution: 128
  m_ReflectionBounces: 1
  m_ReflectionIntensity: 1
  m_CustomReflection: {fileID: 0}
  m_Sun: {fileID: 0}
  m_IndirectSpecularColor: {r: 0, g: 0, b: 0, a: 1}
--- !u!157 &4
LightmapSettings:
  m_ObjectHideFlags: 0
  serializedVersion: 7
  m_GIWorkflowMode: 1
  m_GISettings:
    serializedVersion: 2
    m_BounceScale: 1
    m_IndirectOutputScale: 1
    m_AlbedoBoost: 1
    m_TemporalCoherenceThreshold: 1
    m_EnvironmentLightingMode: 0
    m_EnableBakedLightmaps: 1
    m_EnableRealtimeLightmaps: 0
  m_LightmapEditorSettings:
    serializedVersion: 4
    m_Resolution: 1
    m_BakeResolution: 50
    m_TextureWidth: 1024
    m_TextureHeight: 1024
    m_AO: 0
    m_AOMaxDistance: 1
    m_CompAOExponent: 0
    m_CompAOExponentDirect: 0
    m_Padding: 2
    m_LightmapParameters: {fileID: 0}
    m_LightmapsBakeMode: 1
    m_TextureCompression: 0
    m_DirectLightInLightProbes: 1
    m_FinalGather: 0
    m_FinalGatherFiltering: 1
    m_FinalGatherRayCount: 1024
    m_ReflectionCompression: 2
  m_LightingDataAsset: {fileID: 0}
  m_RuntimeCPUUsage: 25
--- !u!196 &5
NavMeshSettings:
  serializedVersion: 2
  m_ObjectHideFlags: 0
  m_BuildSettings:
    serializedVersion: 2
    agentRadius: 0.5
    agentHeight: 2
    agentSlope: 45
    agentClimb: 0.4
    ledgeDropHeight: 0
    maxJumpAcrossDistance: 0
    accuratePlacement: 0
    minRegionArea: 2
    cellSize: 0.16666666
    manualCellSize: 0
  m_NavMeshData: {fileID: 0}
--- !u!1 &133702381
GameObject:
  m_ObjectHideFlags: 0
  m_PrefabParentObject: {fileID: 1000011849790374, guid: e20295937dcf89f4187b8a37a845bf81,
    type: 2}
  m_PrefabInternal: {fileID: 1652970870}
  serializedVersion: 4
  m_Component:
  - 4: {fileID: 133702382}
  - 33: {fileID: 133702384}
  - 23: {fileID: 133702383}
  m_Layer: 0
  m_Name: Back
  m_TagString: Untagged
  m_Icon: {fileID: 0}
  m_NavMeshLayer: 0
  m_StaticEditorFlags: 0
  m_IsActive: 1
--- !u!4 &133702382
Transform:
  m_ObjectHideFlags: 0
  m_PrefabParentObject: {fileID: 4000012630047384, guid: e20295937dcf89f4187b8a37a845bf81,
    type: 2}
  m_PrefabInternal: {fileID: 1652970870}
  m_GameObject: {fileID: 133702381}
  m_LocalRotation: {x: 0, y: 1, z: 0, w: 0}
  m_LocalPosition: {x: 0, y: 0, z: -499}
  m_LocalScale: {x: 1000, y: 1000, z: 1000}
  m_LocalEulerAnglesHint: {x: 0, y: 180, z: 0}
  m_Children: []
  m_Father: {fileID: 1203281517}
  m_RootOrder: 5
--- !u!23 &133702383
MeshRenderer:
  m_ObjectHideFlags: 0
  m_PrefabParentObject: {fileID: 23000011993042206, guid: e20295937dcf89f4187b8a37a845bf81,
    type: 2}
  m_PrefabInternal: {fileID: 1652970870}
  m_GameObject: {fileID: 133702381}
  m_Enabled: 1
  m_CastShadows: 1
  m_ReceiveShadows: 1
  m_MotionVectors: 1
  m_LightProbeUsage: 0
  m_ReflectionProbeUsage: 1
  m_Materials:
  - {fileID: 2100000, guid: 05c6d481b2d83cd42adced4944ced733, type: 2}
  m_SubsetIndices: 
  m_StaticBatchRoot: {fileID: 0}
  m_ProbeAnchor: {fileID: 0}
  m_LightProbeVolumeOverride: {fileID: 0}
  m_ScaleInLightmap: 1
  m_PreserveUVs: 0
  m_IgnoreNormalsForChartDetection: 0
  m_ImportantGI: 0
  m_SelectedWireframeHidden: 0
  m_MinimumChartSize: 4
  m_AutoUVMaxDistance: 0.5
  m_AutoUVMaxAngle: 89
  m_LightmapParameters: {fileID: 0}
  m_SortingLayerID: 0
  m_SortingOrder: 0
--- !u!33 &133702384
MeshFilter:
  m_ObjectHideFlags: 0
  m_PrefabParentObject: {fileID: 33000012453629146, guid: e20295937dcf89f4187b8a37a845bf81,
    type: 2}
  m_PrefabInternal: {fileID: 1652970870}
  m_GameObject: {fileID: 133702381}
  m_Mesh: {fileID: 10210, guid: 0000000000000000e000000000000000, type: 0}
--- !u!1 &182638744
GameObject:
  m_ObjectHideFlags: 0
  m_PrefabParentObject: {fileID: 1000010997487664, guid: e20295937dcf89f4187b8a37a845bf81,
    type: 2}
  m_PrefabInternal: {fileID: 1652970870}
  serializedVersion: 4
  m_Component:
  - 4: {fileID: 182638745}
  - 33: {fileID: 182638747}
  - 23: {fileID: 182638746}
  m_Layer: 0
  m_Name: Top
  m_TagString: Untagged
  m_Icon: {fileID: 0}
  m_NavMeshLayer: 0
  m_StaticEditorFlags: 0
  m_IsActive: 1
--- !u!4 &182638745
Transform:
  m_ObjectHideFlags: 0
  m_PrefabParentObject: {fileID: 4000011469594028, guid: e20295937dcf89f4187b8a37a845bf81,
    type: 2}
  m_PrefabInternal: {fileID: 1652970870}
  m_GameObject: {fileID: 182638744}
  m_LocalRotation: {x: -0.7071068, y: 0, z: 0, w: 0.7071068}
  m_LocalPosition: {x: 0, y: 499, z: 0}
  m_LocalScale: {x: 1000, y: 1000, z: 1000}
  m_LocalEulerAnglesHint: {x: -90, y: 0, z: 0}
  m_Children: []
  m_Father: {fileID: 1203281517}
  m_RootOrder: 0
--- !u!23 &182638746
MeshRenderer:
  m_ObjectHideFlags: 0
  m_PrefabParentObject: {fileID: 23000010074388434, guid: e20295937dcf89f4187b8a37a845bf81,
    type: 2}
  m_PrefabInternal: {fileID: 1652970870}
  m_GameObject: {fileID: 182638744}
  m_Enabled: 1
  m_CastShadows: 1
  m_ReceiveShadows: 1
  m_MotionVectors: 1
  m_LightProbeUsage: 0
  m_ReflectionProbeUsage: 1
  m_Materials:
  - {fileID: 2100000, guid: c7d87c4cf8cb0234687a36a657bec251, type: 2}
  m_SubsetIndices: 
  m_StaticBatchRoot: {fileID: 0}
  m_ProbeAnchor: {fileID: 0}
  m_LightProbeVolumeOverride: {fileID: 0}
  m_ScaleInLightmap: 1
  m_PreserveUVs: 0
  m_IgnoreNormalsForChartDetection: 0
  m_ImportantGI: 0
  m_SelectedWireframeHidden: 0
  m_MinimumChartSize: 4
  m_AutoUVMaxDistance: 0.5
  m_AutoUVMaxAngle: 89
  m_LightmapParameters: {fileID: 0}
  m_SortingLayerID: 0
  m_SortingOrder: 0
--- !u!33 &182638747
MeshFilter:
  m_ObjectHideFlags: 0
  m_PrefabParentObject: {fileID: 33000011403583486, guid: e20295937dcf89f4187b8a37a845bf81,
    type: 2}
  m_PrefabInternal: {fileID: 1652970870}
  m_GameObject: {fileID: 182638744}
  m_Mesh: {fileID: 10210, guid: 0000000000000000e000000000000000, type: 0}
--- !u!1 &828460516
GameObject:
  m_ObjectHideFlags: 0
  m_PrefabParentObject: {fileID: 1000012403782342, guid: e20295937dcf89f4187b8a37a845bf81,
    type: 2}
  m_PrefabInternal: {fileID: 1652970870}
  serializedVersion: 4
  m_Component:
  - 4: {fileID: 828460517}
  - 33: {fileID: 828460519}
  - 23: {fileID: 828460518}
  m_Layer: 0
  m_Name: Left
  m_TagString: Untagged
  m_Icon: {fileID: 0}
  m_NavMeshLayer: 0
  m_StaticEditorFlags: 0
  m_IsActive: 1
--- !u!4 &828460517
Transform:
  m_ObjectHideFlags: 0
  m_PrefabParentObject: {fileID: 4000012357002480, guid: e20295937dcf89f4187b8a37a845bf81,
    type: 2}
  m_PrefabInternal: {fileID: 1652970870}
  m_GameObject: {fileID: 828460516}
  m_LocalRotation: {x: 0, y: -0.7071068, z: 0, w: 0.7071068}
  m_LocalPosition: {x: -499, y: 0, z: 0}
  m_LocalScale: {x: 1000, y: 1000, z: 1000}
  m_LocalEulerAnglesHint: {x: 0, y: -90, z: 0}
  m_Children: []
  m_Father: {fileID: 1203281517}
  m_RootOrder: 2
--- !u!23 &828460518
MeshRenderer:
  m_ObjectHideFlags: 0
  m_PrefabParentObject: {fileID: 23000013099928210, guid: e20295937dcf89f4187b8a37a845bf81,
    type: 2}
  m_PrefabInternal: {fileID: 1652970870}
  m_GameObject: {fileID: 828460516}
  m_Enabled: 1
  m_CastShadows: 1
  m_ReceiveShadows: 1
  m_MotionVectors: 1
  m_LightProbeUsage: 0
  m_ReflectionProbeUsage: 1
  m_Materials:
  - {fileID: 2100000, guid: 126f63548b0bb0e45984b00a5dc60f9a, type: 2}
  m_SubsetIndices: 
  m_StaticBatchRoot: {fileID: 0}
  m_ProbeAnchor: {fileID: 0}
  m_LightProbeVolumeOverride: {fileID: 0}
  m_ScaleInLightmap: 1
  m_PreserveUVs: 0
  m_IgnoreNormalsForChartDetection: 0
  m_ImportantGI: 0
  m_SelectedWireframeHidden: 0
  m_MinimumChartSize: 4
  m_AutoUVMaxDistance: 0.5
  m_AutoUVMaxAngle: 89
  m_LightmapParameters: {fileID: 0}
  m_SortingLayerID: 0
  m_SortingOrder: 0
--- !u!33 &828460519
MeshFilter:
  m_ObjectHideFlags: 0
  m_PrefabParentObject: {fileID: 33000012490991614, guid: e20295937dcf89f4187b8a37a845bf81,
    type: 2}
  m_PrefabInternal: {fileID: 1652970870}
  m_GameObject: {fileID: 828460516}
  m_Mesh: {fileID: 10210, guid: 0000000000000000e000000000000000, type: 0}
--- !u!1 &850001443
GameObject:
  m_ObjectHideFlags: 0
  m_PrefabParentObject: {fileID: 1000012426281796, guid: e20295937dcf89f4187b8a37a845bf81,
    type: 2}
  m_PrefabInternal: {fileID: 1652970870}
  serializedVersion: 4
  m_Component:
  - 4: {fileID: 850001444}
  - 33: {fileID: 850001446}
  - 23: {fileID: 850001445}
  m_Layer: 0
  m_Name: Right
  m_TagString: Untagged
  m_Icon: {fileID: 0}
  m_NavMeshLayer: 0
  m_StaticEditorFlags: 0
  m_IsActive: 1
--- !u!4 &850001444
Transform:
  m_ObjectHideFlags: 0
  m_PrefabParentObject: {fileID: 4000012463577500, guid: e20295937dcf89f4187b8a37a845bf81,
    type: 2}
  m_PrefabInternal: {fileID: 1652970870}
  m_GameObject: {fileID: 850001443}
  m_LocalRotation: {x: 0, y: 0.7071068, z: 0, w: 0.7071068}
  m_LocalPosition: {x: 499, y: 0, z: 0}
  m_LocalScale: {x: 1000, y: 1000, z: 1000}
  m_LocalEulerAnglesHint: {x: 0, y: 90, z: 0}
  m_Children: []
  m_Father: {fileID: 1203281517}
  m_RootOrder: 3
--- !u!23 &850001445
MeshRenderer:
  m_ObjectHideFlags: 0
  m_PrefabParentObject: {fileID: 23000010631511962, guid: e20295937dcf89f4187b8a37a845bf81,
    type: 2}
  m_PrefabInternal: {fileID: 1652970870}
  m_GameObject: {fileID: 850001443}
  m_Enabled: 1
  m_CastShadows: 1
  m_ReceiveShadows: 1
  m_MotionVectors: 1
  m_LightProbeUsage: 0
  m_ReflectionProbeUsage: 1
  m_Materials:
  - {fileID: 2100000, guid: 9b4698860d2ea484d987ce56aed22b98, type: 2}
  m_SubsetIndices: 
  m_StaticBatchRoot: {fileID: 0}
  m_ProbeAnchor: {fileID: 0}
  m_LightProbeVolumeOverride: {fileID: 0}
  m_ScaleInLightmap: 1
  m_PreserveUVs: 0
  m_IgnoreNormalsForChartDetection: 0
  m_ImportantGI: 0
  m_SelectedWireframeHidden: 0
  m_MinimumChartSize: 4
  m_AutoUVMaxDistance: 0.5
  m_AutoUVMaxAngle: 89
  m_LightmapParameters: {fileID: 0}
  m_SortingLayerID: 0
  m_SortingOrder: 0
--- !u!33 &850001446
MeshFilter:
  m_ObjectHideFlags: 0
  m_PrefabParentObject: {fileID: 33000013744237234, guid: e20295937dcf89f4187b8a37a845bf81,
    type: 2}
  m_PrefabInternal: {fileID: 1652970870}
  m_GameObject: {fileID: 850001443}
  m_Mesh: {fileID: 10210, guid: 0000000000000000e000000000000000, type: 0}
--- !u!1 &988342241
GameObject:
  m_ObjectHideFlags: 0
  m_PrefabParentObject: {fileID: 1000010767166688, guid: e20295937dcf89f4187b8a37a845bf81,
    type: 2}
  m_PrefabInternal: {fileID: 1652970870}
  serializedVersion: 4
  m_Component:
  - 4: {fileID: 988342242}
  - 33: {fileID: 988342244}
  - 23: {fileID: 988342243}
  m_Layer: 0
  m_Name: Front
  m_TagString: Untagged
  m_Icon: {fileID: 0}
  m_NavMeshLayer: 0
  m_StaticEditorFlags: 0
  m_IsActive: 1
--- !u!4 &988342242
Transform:
  m_ObjectHideFlags: 0
  m_PrefabParentObject: {fileID: 4000011982902760, guid: e20295937dcf89f4187b8a37a845bf81,
    type: 2}
  m_PrefabInternal: {fileID: 1652970870}
  m_GameObject: {fileID: 988342241}
  m_LocalRotation: {x: 0, y: 0, z: 0, w: 1}
  m_LocalPosition: {x: 0, y: 0, z: 499}
  m_LocalScale: {x: 1000, y: 1000, z: 1000}
  m_LocalEulerAnglesHint: {x: 0, y: 0, z: 0}
  m_Children: []
  m_Father: {fileID: 1203281517}
  m_RootOrder: 4
--- !u!23 &988342243
MeshRenderer:
  m_ObjectHideFlags: 0
  m_PrefabParentObject: {fileID: 23000011238846522, guid: e20295937dcf89f4187b8a37a845bf81,
    type: 2}
  m_PrefabInternal: {fileID: 1652970870}
  m_GameObject: {fileID: 988342241}
  m_Enabled: 1
  m_CastShadows: 1
  m_ReceiveShadows: 1
  m_MotionVectors: 1
  m_LightProbeUsage: 0
  m_ReflectionProbeUsage: 1
  m_Materials:
  - {fileID: 2100000, guid: 6d0c12f0cdc98234c8775442468af790, type: 2}
  m_SubsetIndices: 
  m_StaticBatchRoot: {fileID: 0}
  m_ProbeAnchor: {fileID: 0}
  m_LightProbeVolumeOverride: {fileID: 0}
  m_ScaleInLightmap: 1
  m_PreserveUVs: 0
  m_IgnoreNormalsForChartDetection: 0
  m_ImportantGI: 0
  m_SelectedWireframeHidden: 0
  m_MinimumChartSize: 4
  m_AutoUVMaxDistance: 0.5
  m_AutoUVMaxAngle: 89
  m_LightmapParameters: {fileID: 0}
  m_SortingLayerID: 0
  m_SortingOrder: 0
--- !u!33 &988342244
MeshFilter:
  m_ObjectHideFlags: 0
  m_PrefabParentObject: {fileID: 33000010803628946, guid: e20295937dcf89f4187b8a37a845bf81,
    type: 2}
  m_PrefabInternal: {fileID: 1652970870}
  m_GameObject: {fileID: 988342241}
  m_Mesh: {fileID: 10210, guid: 0000000000000000e000000000000000, type: 0}
--- !u!1 &1203281516
GameObject:
  m_ObjectHideFlags: 0
  m_PrefabParentObject: {fileID: 1000013088287728, guid: e20295937dcf89f4187b8a37a845bf81,
    type: 2}
  m_PrefabInternal: {fileID: 1652970870}
  serializedVersion: 4
  m_Component:
  - 4: {fileID: 1203281517}
  - 114: {fileID: 1557116927}
  m_Layer: 0
  m_Name: Cubemap
  m_TagString: Untagged
  m_Icon: {fileID: 0}
  m_NavMeshLayer: 0
  m_StaticEditorFlags: 0
  m_IsActive: 1
--- !u!4 &1203281517
Transform:
  m_ObjectHideFlags: 0
  m_PrefabParentObject: {fileID: 4000013629204522, guid: e20295937dcf89f4187b8a37a845bf81,
    type: 2}
  m_PrefabInternal: {fileID: 1652970870}
  m_GameObject: {fileID: 1203281516}
  m_LocalRotation: {x: 0, y: 0, z: 0, w: 1}
  m_LocalPosition: {x: 0, y: 0, z: 0}
  m_LocalScale: {x: 1, y: 1, z: 1}
  m_LocalEulerAnglesHint: {x: 0, y: 0, z: 0}
  m_Children:
  - {fileID: 182638745}
  - {fileID: 2009661040}
  - {fileID: 828460517}
  - {fileID: 850001444}
  - {fileID: 988342242}
  - {fileID: 133702382}
  m_Father: {fileID: 0}
  m_RootOrder: 1
--- !u!114 &1557116927
MonoBehaviour:
  m_ObjectHideFlags: 0
  m_PrefabParentObject: {fileID: 114000014017673422, guid: e20295937dcf89f4187b8a37a845bf81,
    type: 2}
  m_PrefabInternal: {fileID: 1652970870}
  m_GameObject: {fileID: 1203281516}
  m_Enabled: 1
  m_EditorHideFlags: 0
  m_Script: {fileID: 11500000, guid: fb521e9ace49d8546a83f420a0debd12, type: 3}
  m_Name: 
  m_EditorClassIdentifier: 
--- !u!1001 &1652970870
Prefab:
  m_ObjectHideFlags: 0
  serializedVersion: 2
  m_Modification:
    m_TransformParent: {fileID: 0}
    m_Modifications:
    - target: {fileID: 4000013629204522, guid: e20295937dcf89f4187b8a37a845bf81, type: 2}
      propertyPath: m_LocalPosition.x
      value: 0
      objectReference: {fileID: 0}
    - target: {fileID: 4000013629204522, guid: e20295937dcf89f4187b8a37a845bf81, type: 2}
      propertyPath: m_LocalPosition.y
      value: 0
      objectReference: {fileID: 0}
    - target: {fileID: 4000013629204522, guid: e20295937dcf89f4187b8a37a845bf81, type: 2}
      propertyPath: m_LocalPosition.z
      value: 0
      objectReference: {fileID: 0}
    - target: {fileID: 4000013629204522, guid: e20295937dcf89f4187b8a37a845bf81, type: 2}
      propertyPath: m_LocalRotation.x
      value: 0
      objectReference: {fileID: 0}
    - target: {fileID: 4000013629204522, guid: e20295937dcf89f4187b8a37a845bf81, type: 2}
      propertyPath: m_LocalRotation.y
      value: 0
      objectReference: {fileID: 0}
    - target: {fileID: 4000013629204522, guid: e20295937dcf89f4187b8a37a845bf81, type: 2}
      propertyPath: m_LocalRotation.z
      value: 0
      objectReference: {fileID: 0}
    - target: {fileID: 4000013629204522, guid: e20295937dcf89f4187b8a37a845bf81, type: 2}
      propertyPath: m_LocalRotation.w
      value: 1
      objectReference: {fileID: 0}
    - target: {fileID: 4000013629204522, guid: e20295937dcf89f4187b8a37a845bf81, type: 2}
      propertyPath: m_RootOrder
      value: 1
      objectReference: {fileID: 0}
    - target: {fileID: 114000014017673422, guid: e20295937dcf89f4187b8a37a845bf81,
        type: 2}
      propertyPath: m_strFileName
      value: EasyMovieTexture.mp4
      objectReference: {fileID: 0}
    m_RemovedComponents: []
  m_ParentPrefab: {fileID: 100100000, guid: e20295937dcf89f4187b8a37a845bf81, type: 2}
  m_RootGameObject: {fileID: 1203281516}
  m_IsPrefabParent: 0
--- !u!1 &1843547130
GameObject:
  m_ObjectHideFlags: 0
  m_PrefabParentObject: {fileID: 0}
  m_PrefabInternal: {fileID: 0}
  serializedVersion: 4
  m_Component:
  - 4: {fileID: 1843547136}
  - 20: {fileID: 1843547135}
  - 124: {fileID: 1843547134}
  - 92: {fileID: 1843547133}
  - 81: {fileID: 1843547132}
  - 114: {fileID: 1843547131}
  m_Layer: 0
  m_Name: Camera
  m_TagString: Untagged
  m_Icon: {fileID: 0}
  m_NavMeshLayer: 0
  m_StaticEditorFlags: 0
  m_IsActive: 1
--- !u!114 &1843547131
MonoBehaviour:
  m_ObjectHideFlags: 0
  m_PrefabParentObject: {fileID: 0}
  m_PrefabInternal: {fileID: 0}
  m_GameObject: {fileID: 1843547130}
  m_Enabled: 1
  m_EditorHideFlags: 0
  m_Script: {fileID: 11500000, guid: eee7f119e152af540911508b5fe8ad36, type: 3}
  m_Name: 
  m_EditorClassIdentifier: 
  scrMedia: {fileID: 1557116927}
  m_bFinish: 0
--- !u!81 &1843547132
AudioListener:
  m_ObjectHideFlags: 0
  m_PrefabParentObject: {fileID: 0}
  m_PrefabInternal: {fileID: 0}
  m_GameObject: {fileID: 1843547130}
  m_Enabled: 1
--- !u!92 &1843547133
Behaviour:
  m_ObjectHideFlags: 0
  m_PrefabParentObject: {fileID: 0}
  m_PrefabInternal: {fileID: 0}
  m_GameObject: {fileID: 1843547130}
  m_Enabled: 1
--- !u!124 &1843547134
Behaviour:
  m_ObjectHideFlags: 0
  m_PrefabParentObject: {fileID: 0}
  m_PrefabInternal: {fileID: 0}
  m_GameObject: {fileID: 1843547130}
  m_Enabled: 1
--- !u!20 &1843547135
Camera:
  m_ObjectHideFlags: 0
  m_PrefabParentObject: {fileID: 0}
  m_PrefabInternal: {fileID: 0}
  m_GameObject: {fileID: 1843547130}
  m_Enabled: 1
  serializedVersion: 2
  m_ClearFlags: 1
  m_BackGroundColor: {r: 0.19215687, g: 0.3019608, b: 0.4745098, a: 0.019607844}
  m_NormalizedViewPortRect:
    serializedVersion: 2
    x: 0
    y: 0
    width: 1
    height: 1
  near clip plane: 0.3
  far clip plane: 1000
  field of view: 60
  orthographic: 0
  orthographic size: 5
  m_Depth: 0
  m_CullingMask:
    serializedVersion: 2
    m_Bits: 4294967295
  m_RenderingPath: -1
  m_TargetTexture: {fileID: 0}
  m_TargetDisplay: 0
  m_TargetEye: 3
  m_HDR: 0
  m_OcclusionCulling: 1
  m_StereoConvergence: 10
  m_StereoSeparation: 0.022
  m_StereoMirrorMode: 0
--- !u!4 &1843547136
Transform:
  m_ObjectHideFlags: 0
  m_PrefabParentObject: {fileID: 0}
  m_PrefabInternal: {fileID: 0}
  m_GameObject: {fileID: 1843547130}
  m_LocalRotation: {x: 0, y: 0, z: 0, w: 1}
  m_LocalPosition: {x: 0, y: 0, z: 0}
  m_LocalScale: {x: 1, y: 1, z: 1}
  m_LocalEulerAnglesHint: {x: 0, y: 0, z: 0}
  m_Children: []
  m_Father: {fileID: 0}
  m_RootOrder: 0
--- !u!1 &2009661039
GameObject:
  m_ObjectHideFlags: 0
  m_PrefabParentObject: {fileID: 1000014119592514, guid: e20295937dcf89f4187b8a37a845bf81,
    type: 2}
  m_PrefabInternal: {fileID: 1652970870}
  serializedVersion: 4
  m_Component:
  - 4: {fileID: 2009661040}
  - 33: {fileID: 2009661042}
  - 23: {fileID: 2009661041}
  m_Layer: 0
  m_Name: Bottom
  m_TagString: Untagged
  m_Icon: {fileID: 0}
  m_NavMeshLayer: 0
  m_StaticEditorFlags: 0
  m_IsActive: 1
--- !u!4 &2009661040
Transform:
  m_ObjectHideFlags: 0
  m_PrefabParentObject: {fileID: 4000012685362062, guid: e20295937dcf89f4187b8a37a845bf81,
    type: 2}
  m_PrefabInternal: {fileID: 1652970870}
  m_GameObject: {fileID: 2009661039}
  m_LocalRotation: {x: 0.7071068, y: 0, z: 0, w: 0.7071068}
  m_LocalPosition: {x: 0, y: -499, z: 0}
  m_LocalScale: {x: 1000, y: 1000, z: 1000}
  m_LocalEulerAnglesHint: {x: 90, y: 0, z: 0}
  m_Children: []
  m_Father: {fileID: 1203281517}
  m_RootOrder: 1
--- !u!23 &2009661041
MeshRenderer:
  m_ObjectHideFlags: 0
  m_PrefabParentObject: {fileID: 23000012019404034, guid: e20295937dcf89f4187b8a37a845bf81,
    type: 2}
  m_PrefabInternal: {fileID: 1652970870}
  m_GameObject: {fileID: 2009661039}
  m_Enabled: 1
  m_CastShadows: 1
  m_ReceiveShadows: 1
  m_MotionVectors: 1
  m_LightProbeUsage: 0
  m_ReflectionProbeUsage: 1
  m_Materials:
  - {fileID: 2100000, guid: 8ed153a3ef70f2343864438b45b775f6, type: 2}
  m_SubsetIndices: 
  m_StaticBatchRoot: {fileID: 0}
  m_ProbeAnchor: {fileID: 0}
  m_LightProbeVolumeOverride: {fileID: 0}
  m_ScaleInLightmap: 1
  m_PreserveUVs: 0
  m_IgnoreNormalsForChartDetection: 0
  m_ImportantGI: 0
  m_SelectedWireframeHidden: 0
  m_MinimumChartSize: 4
  m_AutoUVMaxDistance: 0.5
  m_AutoUVMaxAngle: 89
  m_LightmapParameters: {fileID: 0}
  m_SortingLayerID: 0
  m_SortingOrder: 0
--- !u!33 &2009661042
MeshFilter:
  m_ObjectHideFlags: 0
  m_PrefabParentObject: {fileID: 33000013284011270, guid: e20295937dcf89f4187b8a37a845bf81,
    type: 2}
  m_PrefabInternal: {fileID: 1652970870}
  m_GameObject: {fileID: 2009661039}
  m_Mesh: {fileID: 10210, guid: 0000000000000000e000000000000000, type: 0}
